…
## Now we can analyze the listings dumps and extract links to the detail

``` r
#vytvoř dataframe se základníma informacema o bytech odkaze na detail
html_list<-list.files(path = "./data/html_dump", pattern = ".html", all.files = FALSE,
           full.names = TRUE, recursive = FALSE,
           ignore.case = FALSE, include.dirs = FALSE, no.. = FALSE)

html_details<-purrr::map_df(html_list,get_page_info)

html_details
#> # A tibble: 235 x 5
#>    name        id      url                            locality           price  
#>    <chr>       <chr>   <chr>                          <chr>              <chr>  
#>  1 Prodej byt… 148200… https://www.sreality.cz/detai… Hroznatova, Mariá… 1 560 …
#>  2 Prodej byt… 327717… https://www.sreality.cz/detai… Armádní, Milovice… 2 890 …
#>  3 Prodej byt… 581352… https://www.sreality.cz/detai… Vítkovická, Nymbu… 3 950 …
#>  4 Prodej byt… 122006… https://www.sreality.cz/detai… Benešova, Kolín -… 3 800 …
#>  5 Prodej byt… 259140… https://www.sreality.cz/detai… Moskevská, Most    1 199 …
#>  6 Prodej byt… 157657… https://www.sreality.cz/detai… Za Cukrovarem, Ce… 3 250 …
#>  7 Prodej byt… 403319… https://www.sreality.cz/detai… Karla Nového, Ben… 3 100 …
#>  8 Prodej byt… 149708… https://www.sreality.cz/detai… Pod Hájem, Králův… 4 500 …
#>  9 Prodej byt… 966175… https://www.sreality.cz/detai… Máchova, Poděbrad… 5 950 …
#> 10 Prodej byt… 741784… https://www.sreality.cz/detai… Anglická, Kladno … 4 990 …
#> # … with 225 more rows
```
…
